Session 1
…
##  ggplot2 3.3.4      purrr   0.3.4
##  tibble  3.1.2      dplyr   1.0.6
##  tidyr   1.1.3      stringr 1.4.0
##  readr   1.4.0      forcats 0.5.1

##  Conflicts  tidyverse_conflicts() 
##  dplyr::filter() masks stats::filter()
##  dplyr::lag()    masks stats::lag()

data <- tibble(Status = rbinom(N, 1, prevalence)) %>%
  mutate(Test_1 = Status) %>%
  mutate(Test_2 = rbinom(N, 1, se[2]*Status + (1-sp[2])*(1-Status))) %>%
  print()

## # A tibble: 1,000 x 3
##    Status Test_1 Test_2
##     <int>  <int>  <int>
##  1      0      0      0
##  2      0      0      0
##  3      0      0      0
##  4      0      0      0
##  5      1      1      0
##  6      0      0      0
##  7      1      1      1
##  8      0      0      0
##  9      1      1      1
## 10      0      0      0
## #  with 990 more rows
…
What happens when the reference test is imperfect?

se <- c(0.9, 0.6)
sp <- c(0.95, 0.9)
N <- 1000
prevalence <- 0.25

library("tidyverse")

data <- tibble(Status = rbinom(N, 1, prevalence)) %>%
  mutate(Test_1 = rbinom(N, 1, se[1]*Status + (1-sp[1])*(1-Status))) %>%
  mutate(Test_2 = rbinom(N, 1, se[2]*Status + (1-sp[2])*(1-Status))) %>%
  print()

## # A tibble: 1,000 x 3
##    Status Test_1 Test_2
##     <int>  <int>  <int>
##  1      0      0      0
##  2      1      1      1
##  3      1      1      1
##  4      0      0      0
##  5      0      0      0
##  6      0      0      1
##  7      0      0      0
##  8      0      0      0
##  9      1      1      0
## 10      1      1      1
## #  with 990 more rows
…
