Session 3
…
As a general rule, the more populations you have, and the more the prevalence varies between them, the better. However, this is conditional on having a consistent sensitivity and specificity between your populations!!!

Exercise 2

For this exercise you will need to use the multi_pop_data.Rdata file under Day2 on the GitHub repository. You should just be able to load this by double clicking on it, otherwise you can choose Session and Load Workspace in RStudio and select the file to load. You should then be able to look at the data:

multi_pop_data
## # A tibble: 1,000 x 3
##    Population    Test1 Test2
##    <fct>         <int> <int>
##  1 CertifiedFree     0     0
##  2 CertifiedFree     0     0
##  3 CertifiedFree     0     0
##  4 CertifiedFree     0     0
##  5 CertifiedFree     0     0
##  6 CertifiedFree     0     0
##  7 CertifiedFree     0     0
##  8 CertifiedFree     0     0
##  9 CertifiedFree     0     0
## 10 CertifiedFree     0     0
## #  with 990 more rows
…
